%YAML 1.1
%TAG !u! tag:unity3d.com,2011:
--- !u!114 &11400000
MonoBehaviour:
  m_ObjectHideFlags: 0
  m_CorrespondingSourceObject: {fileID: 0}
  m_PrefabInstance: {fileID: 0}
  m_PrefabAsset: {fileID: 0}
  m_GameObject: {fileID: 0}
  m_Enabled: 1
  m_EditorHideFlags: 0
  m_Script: {fileID: 11500000, guid: 468a46d0ae32c3544b7d98094e6448a9, type: 3}
  m_Name: AddressableAssetSettings
  m_EditorClassIdentifier: 
  m_DefaultGroup: 6b4d7017e3b53444c8bd15bede65d674
  m_currentHash:
    serializedVersion: 2
    Hash: ce867f169a233186cf353ade403c6bfb
  m_OptimizeCatalogSize: 0
  m_BuildRemoteCatalog: 0
  m_BundleLocalCatalog: 0
  m_CatalogRequestsTimeout: 0
  m_DisableCatalogUpdateOnStart: 0
  m_IgnoreUnsupportedFilesInBuild: 0
  m_UniqueBundleIds: 0
  m_NonRecursiveBuilding: 1
  m_CCDEnabled: 0
  m_maxConcurrentWebRequests: 3
  m_ContiguousBundles: 1
  m_StripUnityVersionFromBundleBuild: 0
  m_DisableVisibleSubAssetRepresentations: 0
  m_ShaderBundleNaming: 0
  m_ShaderBundleCustomNaming: 
  m_MonoScriptBundleNaming: 0
  m_CheckForContentUpdateRestrictionsOption: 0
  m_MonoScriptBundleCustomNaming: 
  m_RemoteCatalogBuildPath:
    m_Id: 
  m_RemoteCatalogLoadPath:
    m_Id: 
  m_ContentStateBuildPathProfileVariableName: <default settings path>
  m_CustomContentStateBuildPath: 
  m_ContentStateBuildPath: 
  m_BuildAddressablesWithPlayerBuild: 0
  m_overridePlayerVersion: 
  m_GroupAssets:
  - {fileID: 11400000, guid: 4827355c0985f4e2eb17f7e232caa7cb, type: 2}
  - {fileID: 11400000, guid: c1bb67d399d484930a5a11cbdad78a0c, type: 2}
  - {fileID: 11400000, guid: 3d37e3c228b6a488f81ff384e7cbb864, type: 2}
  - {fileID: 11400000, guid: 74a4e50640ba34514863a3942ba610a4, type: 2}
  - {fileID: 11400000, guid: a9887bb5984b34920b0ad534a2adb003, type: 2}
  - {fileID: 11400000, guid: 3e3b93779f3df443bb065be9a22efac5, type: 2}
  m_BuildSettings:
    m_CompileScriptsInVirtualMode: 0
    m_CleanupStreamingAssetsAfterBuilds: 1
    m_LogResourceManagerExceptions: 1
    m_BundleBuildPath: Temp/com.unity.addressables/AssetBundles
  m_ProfileSettings:
    m_Profiles:
    - m_InheritedParent: 
      m_Id: 6089bead4858d47e0833a06f251e99f1
      m_ProfileName: Default
      m_Values:
      - m_Id: b7ad4af08fe144c3a8b195ead764ee71
        m_Value: '[UnityEditor.EditorUserBuildSettings.activeBuildTarget]'
      - m_Id: 081b51968de1a47ae8e3484e01f23040
        m_Value: '[UnityEngine.AddressableAssets.Addressables.BuildPath]/[BuildTarget]'
      - m_Id: 67bf06407b1a84dca90f1902e5e5a3ed
        m_Value: '{UnityEngine.AddressableAssets.Addressables.RuntimePath}/[BuildTarget]'
      - m_Id: 8c12bbac8339346d4986fd5964c0f0d6
        m_Value: ServerData/[BuildTarget]
      - m_Id: 896156275d6b24ad1a0b2884a073aa22
        m_Value: http://[PrivateIpAddress]:[HostingServicePort]
    m_ProfileEntryNames:
    - m_Id: b7ad4af08fe144c3a8b195ead764ee71
      m_Name: BuildTarget
      m_InlineUsage: 0
    - m_Id: 081b51968de1a47ae8e3484e01f23040
      m_Name: Local.BuildPath
      m_InlineUsage: 0
    - m_Id: 67bf06407b1a84dca90f1902e5e5a3ed
      m_Name: Local.LoadPath
      m_InlineUsage: 0
    - m_Id: 8c12bbac8339346d4986fd5964c0f0d6
      m_Name: Remote.BuildPath
      m_InlineUsage: 0
    - m_Id: 896156275d6b24ad1a0b2884a073aa22
      m_Name: Remote.LoadPath
      m_InlineUsage: 0
    m_ProfileVersion: 1
  m_LabelTable:
    m_LabelNames:
    - default
    - Locale
    - Locale-en
    - Preload
    - Locale-ru
  m_SchemaTemplates: []
  m_GroupTemplateObjects:
  - {fileID: 11400000, guid: ea782ca93561e4c5996c33fc7a1a5bb6, type: 2}
  m_InitializationObjects: []
  m_CertificateHandlerType:
    m_AssemblyName: 
    m_ClassName: 
  m_ActivePlayerDataBuilderIndex: 3
  m_DataBuilders:
  - {fileID: 11400000, guid: b579c390bfe5a4388b3e45907bcf0a9a, type: 2}
  - {fileID: 11400000, guid: a0c801d27c2bc49229bb0080dc793526, type: 2}
  - {fileID: 11400000, guid: ae43d1d823db641dca16ef5c0869a8fb, type: 2}
  - {fileID: 11400000, guid: 90ebd31f5f87d45a0a20a6d92a3b35f1, type: 2}
  m_ActiveProfileId: 6089bead4858d47e0833a06f251e99f1
  m_HostingServicesManager:
    m_HostingServiceInfos: []
    m_Settings: {fileID: 11400000}
    m_NextInstanceId: 0
    m_RegisteredServiceTypeRefs: []
    m_PingTimeoutInMilliseconds: 5000
