%YAML 1.1
%TAG !u! tag:unity3d.com,2011:
--- !u!114 &11400000
MonoBehaviour:
  m_ObjectHideFlags: 0
  m_CorrespondingSourceObject: {fileID: 0}
  m_PrefabInstance: {fileID: 0}
  m_PrefabAsset: {fileID: 0}
  m_GameObject: {fileID: 0}
  m_Enabled: 1
  m_EditorHideFlags: 0
  m_Script: {fileID: 11500000, guid: bbb281ee3bf0b054c82ac2347e9e782c, type: 3}
  m_Name: Localization-String-Tables-Russian (ru)
  m_EditorClassIdentifier: 
  m_GroupName: Localization-String-Tables-Russian (ru)
  m_Data:
    m_SerializedData: []
  m_GUID: cc7bf153251444c388e4657fa044350e
  m_SerializeEntries:
  - m_GUID: 023537432b8f84db183d77f45f85f2e2
    m_Address: UI_ru
    m_ReadOnly: 1
    m_SerializedLabels:
    - Locale-ru
    - Preload
    FlaggedDuringContentUpdateRestriction: 0
  m_ReadOnly: 1
  m_Settings: {fileID: 11400000, guid: 6d73d41cfc5d94f7999de9d8adfef126, type: 2}
  m_SchemaSet:
    m_Schemas:
    - {fileID: 11400000, guid: 1ee2e07790b624f62a4fc2bc0d0e5d4b, type: 2}
    - {fileID: 11400000, guid: 522664b5e0e8b4341918423b930e4dd3, type: 2}
