%YAML 1.1
%TAG !u! tag:unity3d.com,2011:
--- !u!1045 &1
EditorBuildSettings:
  m_ObjectHideFlags: 0
  serializedVersion: 2
  m_Scenes:
  - enabled: 1
    path: Assets/Scenes/Startup.unity
    guid: 9fc0d4010bbf28b4594072e72b8655ab
  m_configObjects:
    com.unity.addressableassets: {fileID: 11400000, guid: 70b9f6d49db7a4ff49b32c8843ac3b87, type: 2}
    com.unity.localization.settings: {fileID: 11400000, guid: 6c501a617d25f4683ac034c0a345ab24, type: 2}
